<?xml version="1.0" encoding="UTF-8" standalone="no"?>
<!-- Created with Inkscape (http://www.inkscape.org/) -->

<svg
   xmlns:dc="http://purl.org/dc/elements/1.1/"
   xmlns:cc="http://creativecommons.org/ns#"
   xmlns:rdf="http://www.w3.org/1999/02/22-rdf-syntax-ns#"
   xmlns:svg="http://www.w3.org/2000/svg"
   xmlns="http://www.w3.org/2000/svg"
   xmlns:sodipodi="http://sodipodi.sourceforge.net/DTD/sodipodi-0.dtd"
   xmlns:inkscape="http://www.inkscape.org/namespaces/inkscape"
   width="4.5170979cm"
   height="4.5116029cm"
   viewBox="0 0 45.170979 45.116027"
   version="1.1"
   id="svg8"
   inkscape:version="0.92.2 (5c3e80d, 2017-08-06)"
   sodipodi:docname="crowdsort.svg"
   inkscape:export-filename="/home/mac/Pictures/crowdsort.png"
   inkscape:export-xdpi="200"
   inkscape:export-ydpi="200">
  <defs
     id="defs2" />
  <sodipodi:namedview
     id="base"
     pagecolor="#ffffff"
     bordercolor="#666666"
     borderopacity="1.0"
     inkscape:pageopacity="0.0"
     inkscape:pageshadow="2"
     inkscape:zoom="0.98994949"
     inkscape:cx="-120.97344"
     inkscape:cy="40.631555"
     inkscape:document-units="mm"
     inkscape:current-layer="layer1"
     showgrid="false"
     units="cm"
     inkscape:window-width="1440"
     inkscape:window-height="845"
     inkscape:window-x="0"
     inkscape:window-y="0"
     inkscape:window-maximized="1"
     fit-margin-top="0"
     fit-margin-left="0"
     fit-margin-right="0"
     fit-margin-bottom="0" />
  <metadata
     id="metadata5">
    <rdf:RDF>
      <cc:Work
         rdf:about="">
        <dc:format>image/svg+xml</dc:format>
        <dc:type
           rdf:resource="http://purl.org/dc/dcmitype/StillImage" />
        <dc:title />
      </cc:Work>
    </rdf:RDF>
  </metadata>
  <g
     inkscape:label="Layer 1"
     inkscape:groupmode="layer"
     id="layer1"
     transform="translate(-2.3290207,-249.48359)">
    <circle
       id="path3699"
       cx="25"
       cy="272.00003"
       style="fill:#204056;fill-opacity:1;stroke-width:0.55102277"
       r="22.5"
       inkscape:transform-center-x="5.3453906"
       inkscape:transform-center-y="4.2763121" />
    <path
       style="fill:none;stroke:#007ac2;stroke-width:10;stroke-linecap:butt;stroke-linejoin:miter;stroke-miterlimit:4;stroke-dasharray:none;stroke-opacity:1"
       d="m 33.173142,256.52519 c -13.371932,-6.81378 -25.8441213,4.1235 -25.8441213,15.51163 0,11.58801 13.0156603,22.27715 25.8441213,15.51163"
       id="path4659"
       inkscape:connector-curvature="0"
       sodipodi:nodetypes="ccc" />
    <g
       id="g982"
       style="fill:#00e186;fill-opacity:1">
      <rect
         y="261.92322"
         x="38.735172"
         height="16.853043"
         width="3.2757869"
         id="rect4661"
         style="fill:#00e186;fill-opacity:1;stroke:none;stroke-width:10.82120323;stroke-linecap:butt;stroke-linejoin:miter;stroke-miterlimit:4;stroke-dasharray:none;stroke-opacity:1;paint-order:normal" />
      <rect
         y="270.97064"
         x="26.576719"
         height="7.8056188"
         width="3.2757869"
         id="rect4661-6"
         style="fill:#00e186;fill-opacity:1;stroke:none;stroke-width:7.36444616;stroke-linecap:butt;stroke-linejoin:miter;stroke-miterlimit:4;stroke-dasharray:none;stroke-opacity:1;paint-order:normal" />
      <rect
         y="275.1102"
         x="20.49749"
         height="3.666064"
         width="3.2757869"
         id="rect4661-5"
         style="fill:#00e186;fill-opacity:1;stroke:none;stroke-width:5.04703665;stroke-linecap:butt;stroke-linejoin:miter;stroke-miterlimit:4;stroke-dasharray:none;stroke-opacity:1;paint-order:normal" />
      <rect
         y="266.39206"
         x="32.655941"
         height="12.384217"
         width="3.2757869"
         id="rect4661-7"
         style="fill:#00e186;fill-opacity:1;stroke:none;stroke-width:9.27621174;stroke-linecap:butt;stroke-linejoin:miter;stroke-miterlimit:4;stroke-dasharray:none;stroke-opacity:1;paint-order:normal" />
    </g>
  </g>
</svg>
